ID,x,y,z
1,1.8,0.8,11.5
2,5.7,7.1,12.6
3,1.2,45.3,2.4
4,8.4,57.1,-6.6
5,10.2,46.7,-7.9
6,11.4,40,1
7,15.9,35.4,2.5
8,10,30.9,7.1
9,15.7,10,8.4
10,21.1,17.5,5
11,24.5,26.4,10
12,28.5,33.6,3.1
13,33.5,36.5,1.7
14,36.4,42.9,0.4
15,35,4.7,7.4
16,40.6,1.6,7.2
17,39.9,10,6.6
18,41.2,25.7,1.5
19,53.2,4.4,2.9
20,55.3,8.3,2.9
21,60,15.6,-0.9
22,59.1,23.2,0
23,51.8,26.8,1.4
24,54.7,54,-6.3
